[{
	"name": "Taputeranga Island",
	"lat": -41.349531,
	"lng": 174.773302,
	"content": "Located in Island Bay."
}, {
	"name": "Matiu/Somes Island",
	"lat": -41.257360,
	"lng": 174.865677,
	"content": "Used to be a quarantine for livestock."
}, {
	"name": "Ward Island",
	"lat": -41.293515,
	"lng": 174.872114,
	"content": "Protected by Department of Conservation."
}, {
	"name": "Tokomapuna Island",
	"lat": -40.880466,
	"lng": 174.927063,
	"content": "Also known as Aeroplane Island."
}, {
	"name": "Motungarara Island",
	"lat": -40.886431,
	"lng": 174.900885,
	"content": "Jack Webber, known as 'Island Jack' once lived here."
}, {
	"name": "Mana Island",
	"lat": -41.087923,
	"lng": 174.781494,
	"content": "There is evidence of human occupation on this island from the 14th century."
}, {
	"name": "Mokopuna Island",
	"lat": -41.251392,
	"lng": 174.864774,
	"content": "The 'grandchild' of Matiu/Somes Island. Maybe a leper was quarantined here once."
}, {
	"name": "Tahoramaurea Island",
	"lat": -40.889529,
	"lng": 174.902472,
	"content": "Where Octavius Hadfield, a missionary, first met Te Rauparaha."
}];